<svg width="17" height="21" viewBox="0 0 17 21" fill="none" xmlns="http://www.w3.org/2000/svg">
<path d="M0 18.2783C0 20.0132 0.85498 20.8848 2.57324 20.8848H10.376C12.0942 20.8848 12.9492 20.0049 12.9492 18.2783V16.7427H14.4019C16.1118 16.7427 16.9751 15.8628 16.9751 14.1362V7.396C16.9751 6.375 16.7676 5.72754 16.145 5.08838L11.9531 0.830078C11.3638 0.224121 10.6665 0 9.77832 0H6.59912C4.88916 0 4.02588 0.879883 4.02588 2.60645V4.14209H2.57324C0.863281 4.14209 0 5.01367 0 6.74854V18.2783ZM12.1606 9.5874L7.58691 4.93066C6.95605 4.2832 6.43311 4.14209 5.50342 4.14209H5.3623V2.63135C5.3623 1.80957 5.80225 1.33643 6.66553 1.33643H10.3345V5.59473C10.3345 6.55762 10.7993 7.01416 11.7539 7.01416H15.6387V14.1113C15.6387 14.9414 15.1904 15.4062 14.3271 15.4062H12.9492V11.7954C12.9492 10.7329 12.8247 10.2681 12.1606 9.5874ZM11.5381 5.39551V1.99219L15.29 5.81055H11.9448C11.6543 5.81055 11.5381 5.68604 11.5381 5.39551ZM1.33643 18.2534V6.76514C1.33643 5.95166 1.77637 5.47852 2.63965 5.47852H5.3623V10.293C5.3623 11.3389 5.89355 11.8618 6.92285 11.8618H11.6128V18.2534C11.6128 19.0835 11.1646 19.5483 10.3096 19.5483H2.63135C1.77637 19.5483 1.33643 19.0835 1.33643 18.2534ZM7.08057 10.6084C6.74854 10.6084 6.61572 10.4756 6.61572 10.1436V5.78564L11.3555 10.6084H7.08057Z" fill="#9B9B9B"/>
</svg>
