<svg width="20" height="16" viewBox="0 0 20 16" fill="none" xmlns="http://www.w3.org/2000/svg">
<path fill-rule="evenodd" clip-rule="evenodd" d="M0.375 2.5C0.375 1.36091 1.29841 0.4375 2.4375 0.4375H17.5625C18.7016 0.4375 19.625 1.36091 19.625 2.5V13.5C19.625 14.6391 18.7016 15.5625 17.5625 15.5625H2.4375C1.29841 15.5625 0.375 14.6391 0.375 13.5V2.5ZM1.75 11.7223V13.5C1.75 13.8797 2.0578 14.1875 2.4375 14.1875H17.5625C17.9422 14.1875 18.25 13.8797 18.25 13.5V11.7223L15.7848 9.25704C15.2478 8.72007 14.3772 8.72007 13.8402 9.25704L13.0348 10.0625L13.9236 10.9514C14.1921 11.2198 14.1921 11.6552 13.9236 11.9236C13.6551 12.1921 13.2199 12.1921 12.9514 11.9236L8.22227 7.19454C7.6853 6.65757 6.8147 6.65757 6.27773 7.19454L1.75 11.7223ZM11.0312 4.5625C11.0312 3.99296 11.493 3.53125 12.0625 3.53125C12.632 3.53125 13.0938 3.99296 13.0938 4.5625C13.0938 5.13204 12.632 5.59375 12.0625 5.59375C11.493 5.59375 11.0312 5.13204 11.0312 4.5625Z" fill="#87B71F"/>
</svg>
