<svg width="19" height="20" viewBox="0 0 19 20" fill="none" xmlns="http://www.w3.org/2000/svg">
<path fill-rule="evenodd" clip-rule="evenodd" d="M3.5 1.75C2.67157 1.75 2 2.42157 2 3.25L2 16.75C2 17.5784 2.67157 18.25 3.5 18.25H9.5C10.3284 18.25 11 17.5784 11 16.75V13C11 12.5858 11.3358 12.25 11.75 12.25C12.1642 12.25 12.5 12.5858 12.5 13V16.75C12.5 18.4069 11.1569 19.75 9.5 19.75H3.5C1.84315 19.75 0.5 18.4069 0.5 16.75L0.500001 3.25C0.500001 1.59315 1.84315 0.25 3.5 0.25L9.5 0.25C11.1569 0.25 12.5 1.59315 12.5 3.25V7C12.5 7.41421 12.1642 7.75 11.75 7.75C11.3358 7.75 11 7.41421 11 7V3.25C11 2.42157 10.3284 1.75 9.5 1.75L3.5 1.75ZM14.2197 6.46967C14.5126 6.17678 14.9874 6.17678 15.2803 6.46967L18.2803 9.46967C18.5732 9.76257 18.5732 10.2374 18.2803 10.5303L15.2803 13.5303C14.9874 13.8232 14.5126 13.8232 14.2197 13.5303C13.9268 13.2374 13.9268 12.7626 14.2197 12.4697L15.9393 10.75L5 10.75C4.58579 10.75 4.25 10.4142 4.25 10C4.25 9.58579 4.58579 9.25 5 9.25L15.9393 9.25L14.2197 7.53033C13.9268 7.23744 13.9268 6.76256 14.2197 6.46967Z" fill="#696969"/>
</svg>
