<svg width="20" height="17" viewBox="0 0 20 17" fill="none" xmlns="http://www.w3.org/2000/svg">
<path fill-rule="evenodd" clip-rule="evenodd" d="M3.28033 0.71967C2.98744 0.426777 2.51256 0.426777 2.21967 0.71967C1.92678 1.01256 1.92678 1.48744 2.21967 1.78033L16.7197 16.2803C17.0126 16.5732 17.4874 16.5732 17.7803 16.2803C18.0732 15.9874 18.0732 15.5126 17.7803 15.2197L16.0352 13.4745C17.5064 12.3594 18.6595 10.8465 19.3344 9.09593C19.4814 8.71437 19.4816 8.29127 19.3347 7.90962C17.892 4.16051 14.256 1.5 9.99859 1.5C8.28207 1.5 6.66657 1.93249 5.2551 2.69444L3.28033 0.71967ZM7.75194 5.19128L8.84367 6.28301C9.18951 6.10223 9.58291 6 10.0002 6C11.3809 6 12.5002 7.11929 12.5002 8.5C12.5002 8.91727 12.398 9.31067 12.2172 9.65651L13.3091 10.7484C13.7454 10.1077 14.0004 9.33362 14.0004 8.5C14.0004 6.29086 12.2095 4.5 10.0004 4.5C9.16675 4.5 8.39268 4.75501 7.75194 5.19128Z" fill="#C2534C"/>
<path d="M10.7484 12.4302L13.2711 14.9529C12.2462 15.3074 11.1458 15.5 10.0004 15.5C5.74298 15.5 2.10698 12.8395 0.664255 9.09038C0.517392 8.70873 0.517518 8.28563 0.66461 7.90408C1.15603 6.62932 1.90108 5.48057 2.83791 4.51969L6.0702 7.75198C6.02436 7.9943 6.00037 8.24435 6.00037 8.5C6.00037 10.7091 7.79123 12.5 10.0004 12.5C10.256 12.5 10.5061 12.476 10.7484 12.4302Z" fill="#C2534C"/>
</svg>
