<svg width="18" height="16" viewBox="0 0 18 16" fill="none" xmlns="http://www.w3.org/2000/svg">
<path d="M17.1 4.72732C17.1 2.55835 15.2112 0.800049 12.8813 0.800049C11.1392 0.800049 9.64378 1.78298 9.00002 3.18558C8.35627 1.78298 6.86083 0.800049 5.11877 0.800049C2.78882 0.800049 0.900024 2.55835 0.900024 4.72732C0.900024 11.0289 9.00002 15.2 9.00002 15.2C9.00002 15.2 17.1 11.0289 17.1 4.72732Z" fill="#DEDEDE" stroke="#DEDEDE" stroke-width="1.5" stroke-linecap="round" stroke-linejoin="round"/>
</svg>
