<svg width="20" height="20" viewBox="0 0 20 20" fill="none" xmlns="http://www.w3.org/2000/svg">
<path d="M10 0.25C10.4142 0.25 10.75 0.585786 10.75 1V3.25C10.75 3.66421 10.4142 4 10 4C9.58579 4 9.25 3.66421 9.25 3.25V1C9.25 0.585786 9.58579 0.25 10 0.25Z" fill="#131313"/>
<path d="M5.5 10C5.5 7.51472 7.51472 5.5 10 5.5C12.4853 5.5 14.5 7.51472 14.5 10C14.5 12.4853 12.4853 14.5 10 14.5C7.51472 14.5 5.5 12.4853 5.5 10Z" fill="#131313"/>
<path d="M16.8943 4.16634C17.1872 3.87344 17.1872 3.39857 16.8943 3.10568C16.6014 2.81278 16.1266 2.81278 15.8337 3.10568L14.2427 4.69667C13.9498 4.98956 13.9498 5.46444 14.2427 5.75733C14.5356 6.05022 15.0105 6.05022 15.3034 5.75733L16.8943 4.16634Z" fill="#131313"/>
<path d="M19.75 10C19.75 10.4142 19.4142 10.75 19 10.75H16.75C16.3358 10.75 16 10.4142 16 10C16 9.58579 16.3358 9.25 16.75 9.25H19C19.4142 9.25 19.75 9.58579 19.75 10Z" fill="#131313"/>
<path d="M15.8336 16.8943C16.1265 17.1871 16.6013 17.1871 16.8942 16.8943C17.1871 16.6014 17.1871 16.1265 16.8942 15.8336L15.3032 14.2426C15.0103 13.9497 14.5355 13.9497 14.2426 14.2426C13.9497 14.5355 13.9497 15.0104 14.2426 15.3033L15.8336 16.8943Z" fill="#131313"/>
<path d="M10 16C10.4142 16 10.75 16.3358 10.75 16.75V19C10.75 19.4142 10.4142 19.75 10 19.75C9.58579 19.75 9.25 19.4142 9.25 19V16.75C9.25 16.3358 9.58579 16 10 16Z" fill="#131313"/>
<path d="M5.7575 15.3033C6.0504 15.0104 6.0504 14.5355 5.7575 14.2426C5.46461 13.9497 4.98974 13.9497 4.69684 14.2426L3.10585 15.8336C2.81296 16.1265 2.81296 16.6014 3.10585 16.8943C3.39875 17.1872 3.87362 17.1872 4.16651 16.8943L5.7575 15.3033Z" fill="#131313"/>
<path d="M4 10C4 10.4142 3.66421 10.75 3.25 10.75H1C0.585786 10.75 0.25 10.4142 0.25 10C0.25 9.58579 0.585786 9.25 1 9.25H3.25C3.66421 9.25 4 9.58579 4 10Z" fill="#131313"/>
<path d="M4.69673 5.75732C4.98962 6.05021 5.4645 6.05021 5.75739 5.75732C6.05028 5.46443 6.05028 4.98955 5.75739 4.69666L4.1664 3.10567C3.87351 2.81278 3.39863 2.81278 3.10574 3.10567C2.81285 3.39856 2.81285 3.87344 3.10574 4.16633L4.69673 5.75732Z" fill="#131313"/>
</svg>
